…
# call collect() instead to return a data.frame (note that this is more
# expensive than compute())
dat_lazy |>
  select(starts_with("Sepal")) |>
  filter(between(Sepal.Length, 5, 6)) |>
  collect()
#> # A tibble: 67 × 2
#>    Sepal.Length Sepal.Width
#>           <dbl>       <dbl>
#>  1          5.1         3.5
#>  2          5           3.6
#>  3          5.4         3.9
#>  4          5           3.4
#>  5          5.4         3.7
#>  6          5.8         4  
#>  7          5.7         4.4
#>  8          5.4         3.9
#>  9          5.1         3.5
#> 10          5.7         3.8
#> # ℹ 57 more rows
```
