Getting started • tidypolars
…
Here’s an example of some dplyr code:

library(dplyr, warn.conflicts = FALSE)

starwars |> 
  select(name, height, mass, species, sex) |> 
  mutate(
    BMI = mass / ((height/100) ^2)
  ) |> 
  select(BMI, everything()) |> 
  rename_with(.fn = toupper)
#> # A tibble: 87 × 6
#>      BMI NAME               HEIGHT  MASS SPECIES SEX   
#>    <dbl> <chr>               <int> <dbl> <chr>   <chr> 
#>  1  26.0 Luke Skywalker        172    77 Human   male  
#>  2  26.9 C-3PO                 167    75 Droid   none  
#>  3  34.7 R2-D2                  96    32 Droid   none  
#>  4  33.3 Darth Vader           202   136 Human   male  
#>  5  21.8 Leia Organa           150    49 Human   female
#>  6  37.9 Owen Lars             178   120 Human   male  
#>  7  27.5 Beru Whitesun lars    165    75 Human   female
#>  8  34.0 R5-D4                  97    32 Droid   none  
#>  9  25.1 Biggs Darklighter     183    84 Human   male  
#> 10  23.2 Obi-Wan Kenobi        182    77 Human   male  
#> # ℹ 77 more rows
…
